{
    "size" : [
        {
            "id" : 0,
            "translateKey" : "COMMON.ALL",
            "width": "0",
            "height": "0"
        },
        {
            "id" : 1,
            "translateKey" : "WXGA 16:9 (1280 x 720)",
            "width": "1280",
            "height": "720"
        },
        {
            "id" : 2,
            "translateKey" : "WXGA 5:3 (1280 x 768)",
            "width": "1280",
            "height": "768"
        },
        {
            "id" : 3,
            "translateKey" : "WXGA 16:10 (1280 x 800)",
            "width": "1280",
            "height": "800"
        },
        {
            "id" : 4,
            "translateKey" : "SXGA 5:4 (1280 x 1024)",
            "width": "1280",
            "height": "1024"
        },
        {
            "id" : 5,
            "translateKey" : "HD ~16:9 (1360 x 768)",
            "width": "1360",
            "height": "768"
        },
        {
            "id" : 6,
            "translateKey" : "WXGA+ 16:10 (1440 x 900)",
            "width": "1440",
            "height": "900"
        },
        {
            "id" : 7,
            "translateKey" : "HD+ 16:9 (1600 x 900)",
            "width": "1600",
            "height": "900"
        },
        {
            "id" : 8,
            "translateKey" : "WSXGA+ 16:10 (1680 x 1050)",
            "width": "1680",
            "height": "1050"
        },
        {
            "id" : 9,
            "translateKey" : "FHD 16:9 (1920 x 1080)",
            "width": "1920",
            "height": "1080"
        },
        {
            "id" : 10,
            "translateKey" : "WUXGA 16:10 (1920 x 1200)",
            "width": "1920",
            "height": "1200"
        },
        {
            "id" : 11,
            "translateKey" : "Other 21:9 (2560 x 1080)",
            "width": "2560",
            "height": "1080"
        },
        {
            "id" : 12,
            "translateKey" : "QHD 16:9 (2560 x 1440)",
            "width": "2560",
            "height": "1440"
        },
        {
            "id" : 13,
            "translateKey" : "UW 21:9 (3440 x 1440)",
            "width": "3440",
            "height": "1440"
        },
        {
            "id" : 14,
            "translateKey" : "4K UHD 16:9 (3840 x 2160)",
            "width": "3840",
            "height": "2160"
        },
        {
            "id" : 15,
            "translateKey" : "DCI 4K (4096 x 2160)",
            "width": "4096",
            "height": "2160"
        },
        {
            "id" : 16,
            "translateKey" : "8K UHD (7680 x 4320)",
            "width": "7680",
            "height": "4320"
        }
    ],
    "colors" : [
        {
            "id" : 0,
            "urlValue" : "",
            "translateKey" : "COMMON.ALL" 
        },
        {
            "id" : 1,
            "urlValue" : "grayscale",
            "translateKey" : "COLORS.GRAYSCALE" 
        },
        {
            "id" : 2,
            "urlValue" : "transparent",
            "translateKey" : "COLORS.TRANSPARENT" 
        },
        {
            "id" : 3,
            "urlValue" : "red",
            "translateKey" : "COLORS.RED" 
        },
        {
            "id" : 4,
            "urlValue" : "orange",
            "translateKey" : "COLORS.ORANGE" 
        },
        {
            "id" : 5,
            "urlValue" : "yellow",
            "translateKey" : "COLORS.YELLOW" 
        },
        {
            "id" : 6,
            "urlValue" : "green",
            "translateKey" : "COLORS.GREEN" 
        },
        {
            "id" : 7,
            "urlValue" : "turquoise",
            "translateKey" : "COLORS.TURQUOISE" 
        },
        {
            "id" : 8,
            "urlValue" : "blue",
            "translateKey" : "COLORS.BLUE" 
        },
        {
            "id" : 9,
            "urlValue" : "lilac",
            "translateKey" : "COLORS.LILAC" 
        },
        {
            "id" : 10,
            "urlValue" : "pink",
            "translateKey" : "COLORS.PINK" 
        },
        {
            "id" : 11,
            "urlValue" : "white",
            "translateKey" : "COLORS.WHITE" 
        },
        {
            "id" : 12,
            "urlValue" : "gray",
            "translateKey" : "COLORS.GRAY" 
        },
        {
            "id" : 13,
            "urlValue" : "black",
            "translateKey" : "COLORS.BLACK" 
        },
        {
            "id" : 14,
            "urlValue" : "brown",
            "translateKey" : "COLORS.BROWN" 
        }
    ],
    "image_type" : [
        {
            "id" : 0,
            "urlValue" : "all",
            "translateKey" : "COMMON.ALL"
        },
        {
            "id" : 1,
            "urlValue" : "photo",
            "translateKey" : "IMAGETYPE.PHOTO"
        },
        {
            "id" : 2,
            "urlValue" : "illustration",
            "translateKey" : "IMAGETYPE.ILLUSTRATION"
        },
        {
            "id" : 3,
            "urlValue" : "vector",
            "translateKey" : "IMAGETYPE.VECTOR"
        }
    ],
    "orientation" : [
        {
            "id" : 0,
            "urlValue" : "all",
            "translateKey" : "COMMON.ALL"
        },
        {
            "id" : 1,
            "urlValue" : "horizontal",
            "translateKey" : "ORIENTATION.HORIZONTAL"
        },
        {
            "id" : 2,
            "urlValue" : "vertical",
            "translateKey" : "ORIENTATION.VERTICAL"
        }
    ],
    "category" : [
        {
            "id" : 0,
            "urlValue" : "",
            "translateKey" : "COMMON.ALL"
        },
        {
            "id" : 1,
            "urlValue" : "fashion",
            "translateKey" : "CATEGORY.FASHION"
        },
        {
            "id" : 2,
            "urlValue" : "nature",
            "translateKey" : "CATEGORY.NATURE"
        },
        {
            "id" : 3,
            "urlValue" : "backgrounds",
            "translateKey" : "CATEGORY.BACKGROUNDS"
        },
        {
            "id" : 4,
            "urlValue" : "science",
            "translateKey" : "CATEGORY.SCIENCE"
        },
        {
            "id" : 5,
            "urlValue" : "education",
            "translateKey" : "CATEGORY.EDUCATION"
        },
        {
            "id" : 6,
            "urlValue" : "people",
            "translateKey" : "CATEGORY.PEOPLE"
        },
        {
            "id" : 7,
            "urlValue" : "feelings",
            "translateKey" : "CATEGORY.FEELINGS"
        },
        {
            "id" : 8,
            "urlValue" : "religion",
            "translateKey" : "CATEGORY.RELIGION"
        },
        {
            "id" : 9,
            "urlValue" : "health",
            "translateKey" : "CATEGORY.HEALTH"
        },
        {
            "id" : 10,
            "urlValue" : "places",
            "translateKey" : "CATEGORY.PLACES"
        },
        {
            "id" : 11,
            "urlValue" : "animals",
            "translateKey" : "CATEGORY.ANIMALS"
        },
        {
            "id" : 12,
            "urlValue" : "industry",
            "translateKey" : "CATEGORY.INDUSTRY"
        },
        {
            "id" : 13,
            "urlValue" : "food",
            "translateKey" : "CATEGORY.FOOD"
        },
        {
            "id" : 14,
            "urlValue" : "computer",
            "translateKey" : "CATEGORY.COMPUTER"
        },
        {
            "id" : 15,
            "urlValue" : "sports",
            "translateKey" : "CATEGORY.SPORTS"
        },
        {
            "id" : 16,
            "urlValue" : "transportation",
            "translateKey" : "CATEGORY.TRANSPORTATION"
        },
        {
            "id" : 17,
            "urlValue" : "travel",
            "translateKey" : "CATEGORY.TRAVEL"
        },
        {
            "id" : 18,
            "urlValue" : "buildings",
            "translateKey" : "CATEGORY.BUILDINGS"
        },
        {
            "id" : 19,
            "urlValue" : "business",
            "translateKey" : "CATEGORY.BUSINESS"
        },
        {
            "id" : 20,
            "urlValue" : "music",
            "translateKey" : "CATEGORY.MUSIC"
        }
    ],
    "order" : [
        {
            "id" : 0,
            "urlValue" : "popular",
            "translateKey" : "ORDER.POPULAR"
        },
        {
            "id" : 1,
            "urlValue" : "latest",
            "translateKey" : "ORDER.LATEST"
        }
    ],
    "editors_choice" : [
        {
            "id" : 0,
            "urlValue" : "false",
            "translateKey" : "COMMON.NO"
        },
        {
            "id" : 1,
            "urlValue" : "true",
            "translateKey" : "COMMON.YES"
        }
    ],
    "lang" : [
        {
            "id" : 0,
            "urlValue" : "en",
            "langCode" : "en",
            "translateKey" : "LANG.ENGLISH"
        },
        {
            "id" : 1,
            "urlValue" : "es",
            "langCode" : "es",
            "translateKey" : "LANG.SPANISH"
        },
        {
            "id" : 2,
            "urlValue" : "ro",
            "langCode" : "ro",
            "translateKey" : "LANG.ROMANIAN"
        },
        {
            "id" : 3,
            "urlValue" : "de",
            "langCode" : "de",
            "translateKey" : "LANG.GERMAN"
        },
        {
            "id" : 4,
            "urlValue" : "fr",
            "langCode" : "fr",
            "translateKey" : "LANG.FRENCH"
        },
        {
            "id" : 5,
            "urlValue" : "it",
            "langCode" : "it",
            "translateKey" : "LANG.ITALIAN"
        },
        {
            "id" : 6,
            "urlValue" : "pt",
            "langCode" : "pt",
            "translateKey" : "LANG.PORTUGUESE"
        }
    ]
}